{
	"info": {
		"_postman_id": "9400158e-46bd-4029-9a37-ebb62443b5d9",
		"name": "SpringBootMVC",
		"schema": "https://schema.getpostman.com/json/collection/v2.1.0/collection.json"
	},
	"item": [
		{
			"name": "Novo pais",
			"request": {
				"method": "POST",
				"header": [],
				"body": {
					"mode": "raw",
					"raw": "{\n    \"nome\": \"Brasil\"\n}",
					"options": {
						"raw": {
							"language": "json"
						}
					}
				},
				"url": {
					"raw": "{{url}}/api/pais/novo",
					"host": [
						"{{url}}"
					],
					"path": [
						"api",
						"pais",
						"novo"
					]
				}
			},
			"response": []
		},
		{
			"name": "Todos os paises",
			"request": {
				"method": "GET",
				"header": [],
				"url": {
					"raw": "{{url}}/api/pais/todos",
					"host": [
						"{{url}}"
					],
					"path": [
						"api",
						"pais",
						"todos"
					]
				}
			},
			"response": []
		},
		{
			"name": "Pais especifico",
			"request": {
				"method": "GET",
				"header": [],
				"url": {
					"raw": "{{url}}/api/pais/ver/1",
					"host": [
						"{{url}}"
					],
					"path": [
						"api",
						"pais",
						"ver",
						"1"
					]
				}
			},
			"response": []
		},
		{
			"name": "Editar pais",
			"request": {
				"method": "PUT",
				"header": [],
				"body": {
					"mode": "raw",
					"raw": "{\n    \"nome\": \"Brazil\"\n}",
					"options": {
						"raw": {
							"language": "json"
						}
					}
				},
				"url": {
					"raw": "{{url}}/api/pais/editar/1",
					"host": [
						"{{url}}"
					],
					"path": [
						"api",
						"pais",
						"editar",
						"1"
					]
				}
			},
			"response": []
		},
		{
			"name": "Nova Agencia",
			"request": {
				"method": "POST",
				"header": [],
				"body": {
					"mode": "raw",
					"raw": "{\n    \"nome\": \"Agencia teste\",\n    \"codigo\": 2\n}",
					"options": {
						"raw": {
							"language": "json"
						}
					}
				},
				"url": {
					"raw": "{{url}}/api/agencia/novo",
					"host": [
						"{{url}}"
					],
					"path": [
						"api",
						"agencia",
						"novo"
					]
				}
			},
			"response": []
		},
		{
			"name": "Todas as agencias",
			"request": {
				"method": "GET",
				"header": [],
				"url": {
					"raw": "{{url}}/api/agencia/todos",
					"host": [
						"{{url}}"
					],
					"path": [
						"api",
						"agencia",
						"todos"
					]
				}
			},
			"response": []
		},
		{
			"name": "Agencia especifica",
			"request": {
				"method": "GET",
				"header": [],
				"url": {
					"raw": "{{url}}/api/agencia/ver/2",
					"host": [
						"{{url}}"
					],
					"path": [
						"api",
						"agencia",
						"ver",
						"2"
					]
				}
			},
			"response": []
		},
		{
			"name": "Editar agencia",
			"request": {
				"method": "PUT",
				"header": [],
				"body": {
					"mode": "raw",
					"raw": "{\n    \"nome\": \"teste\"\n}",
					"options": {
						"raw": {
							"language": "json"
						}
					}
				},
				"url": {
					"raw": "{{url}}/api/agencia/editar/1",
					"host": [
						"{{url}}"
					],
					"path": [
						"api",
						"agencia",
						"editar",
						"1"
					]
				}
			},
			"response": []
		},
		{
			"name": "Novo banco",
			"request": {
				"method": "POST",
				"header": [],
				"body": {
					"mode": "raw",
					"raw": "{\n    \"nome\": \"banco teste\",\n    \"codigo\": 3\n}",
					"options": {
						"raw": {
							"language": "json"
						}
					}
				},
				"url": {
					"raw": "{{url}}/api/banco/novo",
					"host": [
						"{{url}}"
					],
					"path": [
						"api",
						"banco",
						"novo"
					]
				}
			},
			"response": []
		},
		{
			"name": "Todos os bancos",
			"request": {
				"method": "GET",
				"header": [],
				"url": {
					"raw": "{{url}}/api/banco/todos",
					"host": [
						"{{url}}"
					],
					"path": [
						"api",
						"banco",
						"todos"
					]
				}
			},
			"response": []
		},
		{
			"name": "Banco especifico",
			"request": {
				"method": "GET",
				"header": [],
				"url": {
					"raw": "{{url}}/api/banco/ver/1",
					"host": [
						"{{url}}"
					],
					"path": [
						"api",
						"banco",
						"ver",
						"1"
					]
				}
			},
			"response": []
		},
		{
			"name": "Editar banco",
			"request": {
				"method": "PUT",
				"header": [],
				"body": {
					"mode": "raw",
					"raw": "{\n    \"nome\": \"teste\"\n}",
					"options": {
						"raw": {
							"language": "json"
						}
					}
				},
				"url": {
					"raw": "{{url}}/api/banco/editar/1",
					"host": [
						"{{url}}"
					],
					"path": [
						"api",
						"banco",
						"editar",
						"1"
					]
				}
			},
			"response": []
		},
		{
			"name": "Nova cidade",
			"request": {
				"method": "POST",
				"header": [],
				"body": {
					"mode": "raw",
					"raw": "{\n    \"nome\": \"alvorada\"\n}",
					"options": {
						"raw": {
							"language": "json"
						}
					}
				},
				"url": {
					"raw": "{{url}}/api/cidade/novo",
					"host": [
						"{{url}}"
					],
					"path": [
						"api",
						"cidade",
						"novo"
					]
				}
			},
			"response": []
		},
		{
			"name": "Todas as cidades",
			"request": {
				"method": "GET",
				"header": [],
				"url": {
					"raw": "{{url}}/api/cidade/todos",
					"host": [
						"{{url}}"
					],
					"path": [
						"api",
						"cidade",
						"todos"
					]
				}
			},
			"response": []
		},
		{
			"name": "Cidade especifica",
			"request": {
				"method": "GET",
				"header": [],
				"url": {
					"raw": "{{url}}/api/cidade/ver/1",
					"host": [
						"{{url}}"
					],
					"path": [
						"api",
						"cidade",
						"ver",
						"1"
					]
				}
			},
			"response": []
		},
		{
			"name": "Editar cidade",
			"request": {
				"method": "PUT",
				"header": [],
				"body": {
					"mode": "raw",
					"raw": "{\n    \"nome\": \"porto alegre\"\n}",
					"options": {
						"raw": {
							"language": "json"
						}
					}
				},
				"url": {
					"raw": "{{url}}/api/cidade/editar/1",
					"host": [
						"{{url}}"
					],
					"path": [
						"api",
						"cidade",
						"editar",
						"1"
					]
				}
			},
			"response": []
		},
		{
			"name": "Nova consolidacao",
			"request": {
				"method": "POST",
				"header": [],
				"body": {
					"mode": "raw",
					"raw": "{\n    \"saques\": 34.3,\n    \"qtdCorrentistas\": 4\n}",
					"options": {
						"raw": {
							"language": "json"
						}
					}
				},
				"url": {
					"raw": "{{url}}/api/consolidacao/novo",
					"host": [
						"{{url}}"
					],
					"path": [
						"api",
						"consolidacao",
						"novo"
					]
				}
			},
			"response": []
		},
		{
			"name": "Todas as consolidacoes",
			"request": {
				"method": "GET",
				"header": [],
				"url": {
					"raw": "{{url}}/api/consolidacao/todos",
					"host": [
						"{{url}}"
					],
					"path": [
						"api",
						"consolidacao",
						"todos"
					]
				}
			},
			"response": []
		},
		{
			"name": "Consolidacao especifica",
			"request": {
				"method": "GET",
				"header": [],
				"url": {
					"raw": "{{url}}/api/consolidacao/ver/1",
					"host": [
						"{{url}}"
					],
					"path": [
						"api",
						"consolidacao",
						"ver",
						"1"
					]
				}
			},
			"response": []
		},
		{
			"name": "Editar consolidacao",
			"request": {
				"method": "PUT",
				"header": [],
				"body": {
					"mode": "raw",
					"raw": "{\n    \"saques\": 32.3,\n    \"qtdCorrentistas\": 3\n}",
					"options": {
						"raw": {
							"language": "json"
						}
					}
				},
				"url": {
					"raw": "{{url}}/api/consolidacao/editar/1",
					"host": [
						"{{url}}"
					],
					"path": [
						"api",
						"consolidacao",
						"editar",
						"1"
					]
				}
			},
			"response": []
		},
		{
			"name": "Novo Endereco",
			"request": {
				"method": "POST",
				"header": [],
				"body": {
					"mode": "raw",
					"raw": "{\n    \"bairro\": \"teresinha\",\n    \"complemento\": \"casa\"\n}",
					"options": {
						"raw": {
							"language": "json"
						}
					}
				},
				"url": {
					"raw": "{{url}}/api/endereco/novo",
					"host": [
						"{{url}}"
					],
					"path": [
						"api",
						"endereco",
						"novo"
					]
				}
			},
			"response": []
		},
		{
			"name": "Todos os Enderecos",
			"request": {
				"method": "GET",
				"header": [],
				"url": {
					"raw": "{{url}}/api/endereco/todos",
					"host": [
						"{{url}}"
					],
					"path": [
						"api",
						"endereco",
						"todos"
					]
				}
			},
			"response": []
		},
		{
			"name": "Endereco Especifico",
			"request": {
				"method": "GET",
				"header": [],
				"url": {
					"raw": "{{url}}/api/endereco/ver/1",
					"host": [
						"{{url}}"
					],
					"path": [
						"api",
						"endereco",
						"ver",
						"1"
					]
				}
			},
			"response": []
		},
		{
			"name": "Editar endereco",
			"request": {
				"method": "PUT",
				"header": [],
				"body": {
					"mode": "raw",
					"raw": "{\n    \"bairro\": \"morte certa\"\n}",
					"options": {
						"raw": {
							"language": "json"
						}
					}
				},
				"url": {
					"raw": "{{url}}/api/endereco/editar/1",
					"host": [
						"{{url}}"
					],
					"path": [
						"api",
						"endereco",
						"editar",
						"1"
					]
				}
			},
			"response": []
		},
		{
			"name": "Novo estado",
			"request": {
				"method": "POST",
				"header": [],
				"body": {
					"mode": "raw",
					"raw": "{\n    \"nome\": \"SP\"\n}",
					"options": {
						"raw": {
							"language": "json"
						}
					}
				},
				"url": {
					"raw": "{{url}}/api/estado/novo",
					"host": [
						"{{url}}"
					],
					"path": [
						"api",
						"estado",
						"novo"
					]
				}
			},
			"response": []
		},
		{
			"name": "Todos os estados",
			"request": {
				"method": "GET",
				"header": [],
				"url": {
					"raw": "{{url}}/api/estado/todos",
					"host": [
						"{{url}}"
					],
					"path": [
						"api",
						"estado",
						"todos"
					]
				}
			},
			"response": []
		},
		{
			"name": "Estado especifico",
			"request": {
				"method": "GET",
				"header": [],
				"url": {
					"raw": "{{url}}/api/estado/ver/1",
					"host": [
						"{{url}}"
					],
					"path": [
						"api",
						"estado",
						"ver",
						"1"
					]
				}
			},
			"response": []
		},
		{
			"name": "Editar estado",
			"request": {
				"method": "PUT",
				"header": [],
				"body": {
					"mode": "raw",
					"raw": "{\n    \"nome\": \"RS\"\n}",
					"options": {
						"raw": {
							"language": "json"
						}
					}
				},
				"url": {
					"raw": "{{url}}/api/estado/editar/1",
					"host": [
						"{{url}}"
					],
					"path": [
						"api",
						"estado",
						"editar",
						"1"
					]
				}
			},
			"response": []
		},
		{
			"name": "Novo gerente",
			"request": {
				"method": "POST",
				"header": [],
				"body": {
					"mode": "raw",
					"raw": "{\n    \"codFuncionario\": 12\n}",
					"options": {
						"raw": {
							"language": "json"
						}
					}
				},
				"url": {
					"raw": "{{url}}/api/gerente/novo",
					"host": [
						"{{url}}"
					],
					"path": [
						"api",
						"gerente",
						"novo"
					]
				}
			},
			"response": []
		},
		{
			"name": "Todos os gerentes",
			"request": {
				"method": "GET",
				"header": [],
				"url": {
					"raw": "{{url}}/api/gerente/todos",
					"host": [
						"{{url}}"
					],
					"path": [
						"api",
						"gerente",
						"todos"
					]
				}
			},
			"response": []
		},
		{
			"name": "Gerente Especifico",
			"request": {
				"method": "GET",
				"header": [],
				"url": {
					"raw": "{{url}}/api/gerente/ver/1",
					"host": [
						"{{url}}"
					],
					"path": [
						"api",
						"gerente",
						"ver",
						"1"
					]
				}
			},
			"response": []
		},
		{
			"name": "Editar gerente",
			"request": {
				"method": "PUT",
				"header": [],
				"body": {
					"mode": "raw",
					"raw": "{\n    \"codFuncionario\": 1\n}",
					"options": {
						"raw": {
							"language": "json"
						}
					}
				},
				"url": {
					"raw": "{{url}}/api/gerente/editar/1",
					"host": [
						"{{url}}"
					],
					"path": [
						"api",
						"gerente",
						"editar",
						"1"
					]
				}
			},
			"response": []
		},
		{
			"name": "Nova Movimentacao",
			"request": {
				"method": "POST",
				"header": [],
				"body": {
					"mode": "raw",
					"raw": "{\n    \"valor\": 23.4\n}",
					"options": {
						"raw": {
							"language": "json"
						}
					}
				},
				"url": {
					"raw": "{{url}}/api/movimentacao/novo",
					"host": [
						"{{url}}"
					],
					"path": [
						"api",
						"movimentacao",
						"novo"
					]
				}
			},
			"response": []
		},
		{
			"name": "Todas as movimentacoes",
			"request": {
				"method": "GET",
				"header": [],
				"url": {
					"raw": "{{url}}/api/movimentacao/todos",
					"host": [
						"{{url}}"
					],
					"path": [
						"api",
						"movimentacao",
						"todos"
					]
				}
			},
			"response": []
		},
		{
			"name": "Movimentacao especifica",
			"request": {
				"method": "GET",
				"header": [],
				"url": {
					"raw": "{{url}}/api/movimentacao/ver/1",
					"host": [
						"{{url}}"
					],
					"path": [
						"api",
						"movimentacao",
						"ver",
						"1"
					]
				}
			},
			"response": []
		},
		{
			"name": "Editar movimentacao",
			"request": {
				"method": "PUT",
				"header": [],
				"body": {
					"mode": "raw",
					"raw": "{\n    \"valor\": 2333.45\n}",
					"options": {
						"raw": {
							"language": "json"
						}
					}
				},
				"url": {
					"raw": "{{url}}/api/movimentacao/editar/1",
					"host": [
						"{{url}}"
					],
					"path": [
						"api",
						"movimentacao",
						"editar",
						"1"
					]
				}
			},
			"response": []
		},
		{
			"name": "Novo TipoConta",
			"request": {
				"method": "POST",
				"header": [],
				"body": {
					"mode": "raw",
					"raw": "{\n    \"nome\": \"teste\"\n}",
					"options": {
						"raw": {
							"language": "json"
						}
					}
				},
				"url": {
					"raw": "{{url}}/api/tipoConta/novo",
					"host": [
						"{{url}}"
					],
					"path": [
						"api",
						"tipoConta",
						"novo"
					]
				}
			},
			"response": []
		},
		{
			"name": "Todos os TipoConta",
			"request": {
				"method": "GET",
				"header": [],
				"url": {
					"raw": "{{url}}/api/tipoConta/todos",
					"host": [
						"{{url}}"
					],
					"path": [
						"api",
						"tipoConta",
						"todos"
					]
				}
			},
			"response": []
		},
		{
			"name": "TipoConta especifico",
			"request": {
				"method": "GET",
				"header": [],
				"url": {
					"raw": "{{url}}/api/tipoConta/ver/1",
					"host": [
						"{{url}}"
					],
					"path": [
						"api",
						"tipoConta",
						"ver",
						"1"
					]
				}
			},
			"response": []
		},
		{
			"name": "Editar TipoConta",
			"request": {
				"method": "PUT",
				"header": [],
				"body": {
					"mode": "raw",
					"raw": "{\n    \"nome\": \"teste 2\"\n}",
					"options": {
						"raw": {
							"language": "json"
						}
					}
				},
				"url": {
					"raw": "{{url}}/api/tipoConta/editar/1",
					"host": [
						"{{url}}"
					],
					"path": [
						"api",
						"tipoConta",
						"editar",
						"1"
					]
				}
			},
			"response": []
		},
		{
			"name": "Novo usuario",
			"request": {
				"method": "POST",
				"header": [],
				"body": {
					"mode": "raw",
					"raw": "{\n    \"nome\": \"joao\"\n}",
					"options": {
						"raw": {
							"language": "json"
						}
					}
				},
				"url": {
					"raw": "{{url}}/api/usuario/novo",
					"host": [
						"{{url}}"
					],
					"path": [
						"api",
						"usuario",
						"novo"
					]
				}
			},
			"response": []
		},
		{
			"name": "Todos os usuarios",
			"request": {
				"method": "GET",
				"header": [],
				"url": {
					"raw": "{{url}}/api/usuario/todos",
					"host": [
						"{{url}}"
					],
					"path": [
						"api",
						"usuario",
						"todos"
					]
				}
			},
			"response": []
		},
		{
			"name": "Usuario especifico",
			"request": {
				"method": "GET",
				"header": [],
				"url": {
					"raw": "{{url}}/api/usuario/ver/1",
					"host": [
						"{{url}}"
					],
					"path": [
						"api",
						"usuario",
						"ver",
						"1"
					]
				}
			},
			"response": []
		},
		{
			"name": "Editar usuario",
			"request": {
				"method": "PUT",
				"header": [],
				"body": {
					"mode": "raw",
					"raw": "{\n    \"nome\": \"carlos\"\n}",
					"options": {
						"raw": {
							"language": "json"
						}
					}
				},
				"url": {
					"raw": "{{url}}/api/usuario/editar/3",
					"host": [
						"{{url}}"
					],
					"path": [
						"api",
						"usuario",
						"editar",
						"3"
					]
				}
			},
			"response": []
		}
	],
	"protocolProfileBehavior": {}
}