<?xml version="1.0" encoding="utf-8"?>
<!-- Generator: Adobe Illustrator 24.2.1, SVG Export Plug-In . SVG Version: 6.00 Build 0)  -->
<svg version="1.1" id="Layer_1" xmlns="http://www.w3.org/2000/svg" xmlns:xlink="http://www.w3.org/1999/xlink" x="0px" y="0px"
	 viewBox="0 0 167 40" style="enable-background:new 0 0 167 40;" xml:space="preserve">
<style type="text/css">
	.st0{fill-rule:evenodd;clip-rule:evenodd;fill:#0081FF;}
	.st1{fill:#0081FF;}
</style>
<path class="st0" d="M28.4,14l0-0.4l0-0.4l0-0.4l0-0.4l-0.1-0.4l-0.1-0.4L28,11.1l-0.1-0.4l-0.1-0.4l-0.1-0.4l-0.1-0.4l-0.1-0.4
	l-0.1-0.4l-0.2-0.4l-0.2-0.4l-0.2-0.4l-0.2-0.4L26.4,7l-0.2-0.3l-0.2-0.3L25.7,6l-0.2-0.3l-0.3-0.3l-0.3-0.3l-0.3-0.3l-0.3-0.3
	l-0.3-0.3l-0.3-0.3l-0.3-0.3l-0.3-0.3l-0.3-0.3l-0.3-0.2l-0.3-0.2l-0.3-0.2l-0.3-0.2l-0.3-0.2l-0.3-0.2l-0.3-0.1l-0.3-0.2l-0.3-0.1
	l-0.3-0.1l-0.3-0.1l-0.3-0.1L19,1.1L18.7,1l-0.3-0.1l-0.3-0.1l-0.3-0.1l-0.4-0.1L17,0.6l-0.4-0.1l-0.4-0.1l-0.4-0.1l-0.4,0l-0.4,0
	l-0.5,0l-0.5,0l-0.5,0l-0.5,0l-0.5,0l-0.5,0l-0.6,0H0v28.7h10.9h1.1l1,0l0.9,0l0.9-0.1l0.4,0l0.4,0l0.4,0l0.4,0l0.3,0l0.3-0.1l0.3,0
	l0.3-0.1l0.3-0.1l0.3-0.1l0.3-0.1l0.3-0.1l0.3-0.1l0.3-0.1l0.3-0.1l0.3-0.1l0.3-0.1l0.2-0.1l0.2-0.1l0.3-0.1l0.2-0.1l0.2-0.1
	l0.2-0.1l0.2-0.2l0.4-0.3l0.4-0.3l0.4-0.3l0.4-0.3l0.4-0.3l0.3-0.3l0.3-0.3l0.3-0.3l0.3-0.3l0.3-0.3l0.3-0.4l0.3-0.4l0.3-0.4
	l0.2-0.4l0.2-0.4l0.2-0.4l0.2-0.4l0.2-0.4l0.2-0.4l0.2-0.4l0.2-0.4l0.1-0.4l0.1-0.4l0.1-0.4l0.1-0.4l0.1-0.5l0.1-0.4l0.1-0.5l0-0.5
	l0-0.5l0-0.5l0-0.5L28.4,14z M21,15l0,0.5l0,0.4l-0.1,0.4l-0.1,0.4l-0.1,0.4l-0.1,0.2l-0.1,0.2l-0.1,0.2l-0.1,0.2l-0.1,0.2l-0.1,0.2
	l-0.1,0.2l-0.1,0.2L20,18.8L19.9,19l-0.1,0.2l-0.1,0.2l-0.1,0.2l-0.1,0.2l-0.1,0.2L19.2,20l-0.1,0.2l-0.1,0.2l-0.1,0.1l-0.1,0.1
	l-0.1,0.2l-0.2,0.1l-0.1,0.1L18,21.2l-0.2,0.1l-0.2,0.1l-0.2,0.1l-0.2,0.1l-0.2,0.1L17,21.9L16.9,22l-0.2,0.1l-0.2,0.1l-0.2,0.1
	l-0.2,0.1L16,22.4l-0.2,0.1l-0.2,0.1l-0.2,0.1l-0.2,0.1L15,22.8l-0.2,0l-0.2,0l-0.2,0L14,22.9l-0.4,0l-0.4,0l-0.5,0H7.3V5.9h5.4
	l0.5,0l0.4,0L14,6l0.4,0.1l0.2,0l0.2,0l0.2,0l0.2,0l0.2,0.1l0.2,0.1l0.2,0.1L16,6.5l0.2,0.1l0.2,0.1l0.2,0.1l0.2,0.1l0.2,0.1L17,7
	l0.2,0.1l0.2,0.1l0.2,0.1l0.2,0.1l0.2,0.1L18,7.7l0.2,0.1L18.3,8l0.2,0.1l0.1,0.1l0.1,0.2l0.1,0.1l0.1,0.2l0.1,0.2l0.1,0.2l0.1,0.2
	l0.1,0.2l0.1,0.2l0.1,0.2l0.1,0.2l0.1,0.2l0.1,0.2l0.1,0.2l0.1,0.2l0.1,0.2l0.1,0.2l0.1,0.2l0.1,0.2l0.1,0.2l0.1,0.2l0.1,0.4
	l0.1,0.4l0.1,0.4l0,0.5l0,0.5v0.5V15z"/>
<path class="st0" d="M56.2,20.3l0-0.3l0-0.3l0-0.3l0-0.3L56,18.7L56,18.3L55.9,18l-0.1-0.3l-0.1-0.3l-0.1-0.3l-0.1-0.3l-0.1-0.3
	l-0.2-0.2l-0.2-0.3L54.7,16l-0.2-0.2l-0.2-0.2l-0.2-0.2l-0.2-0.2l-0.2-0.2l-0.2-0.2l-0.3-0.2l-0.3-0.2l-0.3-0.2L52.3,14L52,13.9
	l-0.3-0.1l-0.3-0.2l-0.4-0.1l-0.4-0.1l-0.4-0.1l0.2-0.1l0.2-0.1l0.2-0.1l0.2-0.1l0.2-0.1l0.2-0.1l0.2-0.1l0.2-0.1L52,12l0.2-0.1
	l0.2-0.2l0.2-0.2l0.1-0.2l0.1-0.2l0.1-0.2l0.1-0.2l0.1-0.2l0.1-0.2l0.1-0.2l0.1-0.2l0.1-0.2l0.1-0.2l0.1-0.2l0.1-0.2l0-0.2l0-0.2
	l0-0.2l0-0.2l0-0.2V8l0-0.2V7.3l0-0.2l0-0.2l0-0.2l0-0.2l0-0.2l0-0.2l0-0.2l0-0.2l0-0.2l-0.1-0.2l-0.1-0.2l-0.1-0.2l-0.1-0.2
	l-0.1-0.2l-0.1-0.2l-0.1-0.2L53.1,4L53,3.8l-0.1-0.2l-0.1-0.2l-0.1-0.2l-0.1-0.1l-0.1-0.2l-0.1-0.1l-0.1-0.1l-0.2-0.1l-0.2-0.1
	l-0.2-0.1l-0.2-0.1l-0.2-0.1L51.1,2l-0.2-0.1l-0.2-0.1l-0.2-0.1l-0.2-0.1l-0.2-0.1l-0.2-0.1l-0.2-0.1l-0.2-0.1l-0.2-0.1L49,1L48.8,1
	l-0.2-0.1l-0.5-0.1l-0.5-0.1L47,0.5l-0.6-0.1l-0.6-0.1l-0.6-0.1l-0.6,0l-0.7,0l-0.7,0l-0.7,0H31.9v28.7h12.9h0.7l0.7,0l0.7,0
	l0.6-0.1l0.6-0.1l0.6-0.1l0.3,0l0.3,0l0.3-0.1l0.3-0.1l0.3-0.1l0.3-0.1l0.3-0.1l0.2-0.1l0.2-0.1l0.2-0.1l0.2-0.1l0.2-0.1l0.2-0.1
	l0.2-0.1l0.2-0.1l0.2-0.1l0.2-0.1l0.2-0.1l0.2-0.1l0.2-0.1l0.2-0.1l0.2-0.1l0.2-0.1l0.2-0.1l0.1-0.2l0.2-0.1l0.1-0.2l0.1-0.1
	l0.1-0.2l0.1-0.2l0.1-0.2l0.1-0.2l0.1-0.2l0.1-0.2l0.1-0.2l0.1-0.2l0.1-0.2l0.1-0.2l0.1-0.2l0.1-0.2l0.1-0.2L56,23l0-0.2l0-0.2
	l0-0.2l0-0.2l0-0.2l0-0.2l0-0.2l0-0.2v-0.3l0-0.2V20.3z M39.2,5.2h4l0.2,0h0.2l0.2,0l0.2,0l0.2,0l0.2,0l0.2,0l0.2,0L45,5.5l0.2,0.1
	l0.2,0.1l0.1,0.1l0.1,0.1l0.1,0.1L45.8,6L46,6.1l0.1,0.1l0.1,0.1l0.1,0.1l0.1,0.1l0.1,0.1l0.1,0.2l0.1,0.1l0,0.2l0,0.2l0,0.2l0,0.2
	l0,0.2l0,0.2l0,0.2v0.4l0,0.2l0,0.2l0,0.2l0,0.2l0,0.2l0,0.1l-0.1,0.1L46.5,10l-0.1,0.1l-0.1,0.1l-0.1,0.1l-0.1,0.1L46,10.5
	l-0.1,0.1l-0.1,0.1l-0.1,0.1l-0.1,0.1L45.4,11l-0.1,0.1l-0.2,0.1l-0.2,0.1l-0.2,0.1l-0.2,0l-0.2,0l-0.2,0l-0.2,0l-0.2,0l-0.2,0
	l-0.2,0l-0.2,0h-4L39.2,5.2L39.2,5.2z M48.6,20.5l0,0.2l0,0.2l0,0.2l0,0.2l0,0.2l-0.1,0.2l-0.1,0.2L48.2,22l-0.1,0.1L48,22.2
	l-0.1,0.1l-0.1,0.1l-0.1,0.1l-0.1,0.1l-0.1,0.1l-0.2,0.1L47,23l-0.2,0.1l-0.2,0.1l-0.2,0.1l-0.2,0.1L46,23.4l-0.2,0l-0.3,0l-0.3,0
	l-0.3,0l-0.3,0l-0.3,0l-0.3,0l-0.3,0h-4.5v-7h4.1h0.3l0.3,0h0.3l0.3,0l0.3,0l0.3,0l0.3,0l0.2,0l0.2,0.1l0.2,0.1l0.2,0.1l0.2,0.1
	l0.2,0.1l0.2,0.1l0.2,0.1l0.2,0.1l0.2,0.1l0.1,0.1l0.1,0.1l0.1,0.1l0.1,0.1l0.1,0.1l0.1,0.2l0.1,0.2l0.1,0.2l0.1,0.2l0.1,0.2l0,0.2
	l0,0.2l0,0.2l0,0.2L48.6,20.5L48.6,20.5z"/>
<path class="st0" d="M85,26.9l-0.3,0.2l-0.3,0.2L84,27.5l-0.3,0.1l-0.3,0.2L83,27.9l-0.3,0.1l-0.3,0.1L82,28.3l-0.3,0.1l-0.3,0.1
	L81,28.7l-0.3,0.1l-0.3,0.1L80,29l-0.3,0.1l-0.3,0.1L79,29.3l-0.4,0.1l-0.3,0.1l-0.4,0.1l-0.3,0.1l-0.4,0l-0.3,0l-0.4,0l-0.4,0
	l-0.4,0l-0.4,0l-0.4,0l-0.4,0h-0.4h-0.8l-0.4,0l-0.4,0l-0.4,0l-0.4,0l-0.4,0l-0.4-0.1l-0.4-0.1l-0.4,0l-0.4-0.1l-0.4-0.1l-0.4-0.1
	l-0.4-0.1l-0.4-0.1L68,28.9l-0.4-0.1l-0.4-0.1L67,28.5l-0.3-0.1l-0.3-0.2L66,28.1l-0.3-0.2l-0.3-0.2L65,27.5l-0.3-0.2l-0.3-0.2
	l-0.3-0.2l-0.3-0.2l-0.3-0.2l-0.3-0.2L63,26l-0.3-0.3l-0.3-0.3l-0.3-0.3L61.9,25l-0.2-0.3l-0.2-0.3l-0.2-0.3L61,23.8l-0.2-0.3
	l-0.2-0.3l-0.2-0.3l-0.2-0.3L60,22.3L59.9,22l-0.2-0.3l-0.2-0.3l-0.1-0.3l-0.1-0.4l-0.1-0.3L59,19.9l-0.1-0.4l-0.1-0.4l-0.1-0.4
	l-0.1-0.4l-0.1-0.4l-0.1-0.4l-0.1-0.4l0-0.4l0-0.4l0-0.4l0-0.4l0-0.4v-0.8l0-0.4l0-0.4l0-0.4l0-0.4l0-0.4l0-0.4l0.1-0.4l0.1-0.4
	l0.1-0.4l0.1-0.4l0.1-0.4L59,10l0.1-0.3l0.1-0.4l0.1-0.3l0.1-0.3l0.2-0.3l0.2-0.3L60,7.6l0.2-0.3L60.4,7l0.2-0.3l0.2-0.3L61,6.1
	l0.2-0.3l0.2-0.3l0.2-0.3L61.9,5l0.3-0.3l0.3-0.3l0.3-0.2L63,3.9l0.3-0.2l0.3-0.2l0.3-0.2L64.2,3l0.3-0.2l0.3-0.2l0.3-0.2l0.3-0.2
	L65.8,2l0.3-0.2l0.4-0.2l0.3-0.2l0.4-0.1l0.4-0.1l0.4-0.1L68.3,1l0.4-0.1l0.4-0.1l0.4-0.1l0.4-0.1l0.4-0.1l0.4-0.1l0.4-0.1l0.4-0.1
	l0.4,0l0.4,0l0.4,0l0.4,0l0.4,0h0.5h0.5h0.6l0.7,0l0.6,0l0.6,0.1l0.6,0.1l0.6,0.1l0.6,0.1l0.6,0.1l0.6,0.2L81,1l0.6,0.2l0.6,0.2
	l0.6,0.2l0.6,0.3l0.6,0.3l0.6,0.3v6.7L84.4,9l-0.3-0.2l-0.3-0.2l-0.3-0.2l-0.3-0.2l-0.3-0.2L82.6,8l-0.3-0.1L82,7.7l-0.3-0.1
	l-0.3-0.1l-0.3-0.1l-0.3-0.1l-0.3-0.1L80.2,7l-0.3-0.1l-0.3-0.1l-0.3-0.1L79,6.6l-0.3-0.1l-0.3-0.1l-0.3-0.1l-0.3-0.1l-0.3,0l-0.3,0
	l-0.3,0l-0.3,0l-0.3,0l-0.3,0l-0.3,0h-0.3l-0.3,0l-0.5,0l-0.5,0l-0.5,0L73,6.3l-0.3,0l-0.2,0l-0.2,0l-0.2,0l-0.2,0.1l-0.2,0.1
	l-0.2,0.1l-0.2,0.1L71,6.8l-0.2,0.1l-0.2,0.1L70.3,7l-0.2,0.1l-0.2,0.1l-0.2,0.1l-0.2,0.1l-0.2,0.1l-0.2,0.1L69,7.8l-0.2,0.1L68.7,8
	l-0.2,0.1l-0.2,0.1l-0.2,0.1L68,8.6l-0.1,0.1l-0.2,0.2l-0.1,0.2l-0.1,0.2l-0.1,0.2l-0.1,0.2l-0.1,0.2L67,9.9l-0.1,0.2l-0.1,0.2
	l-0.1,0.2l-0.1,0.2l-0.1,0.2l-0.1,0.2l-0.1,0.2l-0.1,0.2l-0.1,0.2l-0.1,0.2L66,12.1L66,12.3l0,0.2l0,0.2l0,0.2l0,0.2l0,0.2l0,0.2
	l0,0.2l0,0.2l0,0.3v0.2V15v0.5l0,0.5l0,0.2l0,0.2l0,0.2l0,0.2l0,0.2l0,0.2l0.1,0.2l0,0.2l0.1,0.2l0.1,0.2l0,0.2l0.1,0.2l0.1,0.2
	l0.1,0.2l0.1,0.2l0.1,0.2l0.1,0.2l0.1,0.2l0.1,0.2l0.1,0.2l0.1,0.2l0.1,0.2l0.1,0.2l0.1,0.2l0.1,0.2l0.1,0.2l0.1,0.2l0.1,0.1
	l0.2,0.1l0.1,0.1l0.2,0.1l0.2,0.1l0.2,0.1l0.2,0.1l0.2,0.1l0.2,0.1l0.2,0.1l0.2,0.1l0.2,0.1l0.2,0.1l0.2,0.1l0.2,0.1l0.2,0.1
	l0.2,0.1l0.2,0.1l0.2,0.1l0.2,0.1l0.2,0.1l0.2,0l0.2,0l0.2,0l0.2,0l0.2,0l0.2,0l0.2,0l0.2,0l0.5,0l0.5,0l0.3,0l0.3,0h0.3l0.3,0
	l0.3,0l0.3,0l0.3,0l0.3,0l0.3-0.1l0.3-0.1l0.3-0.1l0.3-0.1l0.3-0.1l0.3-0.1l0.3-0.1l0.3-0.1l0.3-0.1l0.3-0.1l0.3-0.1l0.3-0.1
	l0.3-0.2l0.3-0.1l0.3-0.2l0.3-0.2l0.3-0.2l0.3-0.2l0.3-0.2l0.3-0.2l0.3-0.2l0.3-0.2l0.3-0.2l0.3-0.2V26.9z"/>
<path class="st1" d="M1.7,34.2H0v5.2h1.7c1.1,0,1.7-1,1.7-2.6C3.4,35.2,2.8,34.2,1.7,34.2z M2.6,38.3c-0.2,0.4-0.6,0.5-1,0.5h-1v-4
	h1c0.4,0,0.8,0.2,1,0.5c0.2,0.4,0.3,0.8,0.3,1.5C2.9,37.5,2.8,38,2.6,38.3z"/>
<path class="st1" d="M4.3,34.2v5.2h0.6v-5.2H4.3L4.3,34.2z"/>
<path class="st1" d="M7.8,36.7v0.6h1.3v0.1c0,0.9-0.6,1.6-1.3,1.6c-0.4,0-0.8-0.2-1.1-0.5c-0.3-0.4-0.5-1-0.5-1.7
	c0-1.3,0.6-2.1,1.5-2.1c0.6,0,1.1,0.4,1.2,1.1h0.6c-0.2-1.1-0.8-1.7-1.8-1.7c-0.5,0-0.9,0.2-1.3,0.5c-0.5,0.5-0.8,1.3-0.8,2.2
	c0,1.6,0.8,2.7,2,2.7c0.6,0,1-0.3,1.5-0.8l0.1,0.7h0.3v-2.8H7.8z"/>
<path class="st1" d="M10.5,34.2v5.2h0.6v-5.2H10.5L10.5,34.2z"/>
<path class="st1" d="M11.7,34.2v0.6h1.4v4.6h0.6v-4.6h1.4v-0.6H11.7L11.7,34.2z"/>
<path class="st1" d="M17.5,34.2h-0.7l-1.5,5.2h0.6l0.5-1.6H18l0.4,1.6H19L17.5,34.2z M16.4,37.3l0.7-2.4h0l0.6,2.4H16.4z"/>
<path class="st1" d="M20.1,38.8v-4.6h-0.5v5.2h2.7v-0.6H20.1L20.1,38.8z"/>
<path class="st1" d="M26.9,36.7c0.4-0.2,0.6-0.6,0.6-1.1c0-0.4-0.1-0.7-0.3-1c-0.2-0.2-0.5-0.4-0.9-0.4h-1.7v5.2h1.9
	c0.4,0,0.7-0.1,0.9-0.4c0.2-0.3,0.3-0.6,0.3-1.1C27.6,37.3,27.4,36.9,26.9,36.7z M25,34.8h1.1c0.3,0,0.5,0,0.6,0.2
	c0.1,0.1,0.2,0.4,0.2,0.6c0,0.3-0.1,0.5-0.2,0.6c-0.2,0.1-0.3,0.2-0.6,0.2H25V34.8z M26.9,38.6c-0.1,0.2-0.3,0.2-0.6,0.2H25V37h1.3
	c0.3,0,0.4,0.1,0.6,0.2c0.1,0.2,0.2,0.4,0.2,0.6C27.1,38.2,27,38.4,26.9,38.6z"/>
<path class="st1" d="M31.1,34.2v3.7c0,0.7-0.4,1.1-1.1,1.1c-0.3,0-0.6-0.1-0.8-0.3c-0.2-0.2-0.3-0.5-0.3-0.9v-3.7h-0.6v3.7
	c0,1.1,0.6,1.7,1.6,1.7c1,0,1.7-0.7,1.7-1.7v-3.7H31.1z"/>
<path class="st1" d="M34.9,36.7l-1.1-0.4c-0.2-0.1-0.4-0.2-0.5-0.3c-0.1-0.1-0.2-0.3-0.2-0.5c0-0.5,0.4-0.9,1-0.9
	c0.7,0,1.1,0.4,1.1,1.1h0.5v-0.1c0-0.5-0.2-0.9-0.5-1.2c-0.3-0.2-0.6-0.4-1.1-0.4c-0.9,0-1.5,0.6-1.5,1.5c0,0.6,0.3,1,0.8,1.2
	l1.1,0.3c0.5,0.2,0.8,0.4,0.8,0.8c0,0.3-0.1,0.6-0.3,0.7c-0.2,0.1-0.4,0.2-0.8,0.2c-0.5,0-0.8-0.1-1-0.4c-0.1-0.2-0.2-0.5-0.2-0.8v0
	h-0.5c0,0.5,0.1,0.8,0.3,1.1c0.3,0.5,0.8,0.7,1.4,0.7c0.5,0,0.9-0.1,1.2-0.4c0.3-0.3,0.5-0.7,0.5-1.2C35.8,37.3,35.5,36.9,34.9,36.7
	z"/>
<path class="st1" d="M36.6,34.2v5.2h0.6v-5.2H36.6L36.6,34.2z"/>
<path class="st1" d="M41,34.2v4.3h0l-2.2-4.3h-0.6v5.2h0.5v-4.2h0l2.2,4.2h0.6v-5.2H41L41,34.2z"/>
<path class="st1" d="M43,38.8V37h2.3v-0.6H43v-1.7h2.4v-0.6h-3v5.2h3.1v-0.6L43,38.8L43,38.8z"/>
<path class="st1" d="M48.6,36.7l-1.1-0.4c-0.2-0.1-0.4-0.2-0.5-0.3c-0.1-0.1-0.2-0.3-0.2-0.5c0-0.5,0.4-0.9,1-0.9
	c0.7,0,1.1,0.4,1.1,1.1h0.5v-0.1c0-0.5-0.2-0.9-0.5-1.2c-0.3-0.2-0.6-0.4-1.1-0.4c-0.9,0-1.5,0.6-1.5,1.5c0,0.6,0.3,1,0.8,1.2
	l1.1,0.3c0.5,0.2,0.8,0.4,0.8,0.8c0,0.3-0.1,0.6-0.3,0.7c-0.2,0.1-0.4,0.2-0.8,0.2c-0.5,0-0.8-0.1-1-0.4c-0.1-0.2-0.2-0.5-0.2-0.8v0
	h-0.5c0,0.5,0.1,0.8,0.3,1.1c0.3,0.5,0.8,0.7,1.4,0.7c0.5,0,0.9-0.1,1.2-0.4c0.3-0.3,0.5-0.7,0.5-1.2C49.5,37.3,49.2,36.9,48.6,36.7
	z"/>
<path class="st1" d="M52.5,36.7l-1.1-0.4c-0.2-0.1-0.4-0.2-0.5-0.3c-0.1-0.1-0.2-0.3-0.2-0.5c0-0.5,0.4-0.9,1-0.9
	c0.7,0,1.1,0.4,1.1,1.1h0.5v-0.1c0-0.5-0.2-0.9-0.5-1.2c-0.3-0.2-0.6-0.4-1.1-0.4c-0.9,0-1.5,0.6-1.5,1.5c0,0.6,0.3,1,0.8,1.2
	l1.1,0.3c0.5,0.2,0.8,0.4,0.8,0.8c0,0.3-0.1,0.6-0.3,0.7c-0.2,0.1-0.4,0.2-0.8,0.2c-0.5,0-0.8-0.1-1-0.4c-0.1-0.2-0.2-0.5-0.2-0.8v0
	H50c0,0.5,0.1,0.8,0.3,1.1c0.3,0.5,0.8,0.7,1.4,0.7c0.5,0,0.9-0.1,1.2-0.4c0.3-0.3,0.5-0.7,0.5-1.2C53.4,37.3,53.1,36.9,52.5,36.7z"
	/>
<path class="st1" d="M58.7,37.5c0,0.4-0.1,0.6-0.2,0.8c-0.2,0.4-0.5,0.7-1,0.7c-0.9,0-1.4-0.8-1.4-2.1c0-1.3,0.5-2.2,1.3-2.2
	c0.3,0,0.7,0.1,0.8,0.3c0.2,0.2,0.2,0.4,0.3,0.8h0.6c-0.2-1.1-0.7-1.7-1.7-1.7c-0.6,0-1,0.2-1.3,0.6c-0.4,0.5-0.6,1.3-0.6,2.1
	c0,0.9,0.2,1.6,0.6,2.1c0.3,0.4,0.7,0.6,1.3,0.6c1,0,1.6-0.7,1.7-2.1L58.7,37.5L58.7,37.5z"/>
<path class="st1" d="M63.2,34.7c-0.4-0.4-0.8-0.6-1.3-0.6c-1.2,0-2.1,1.1-2.1,2.7c0,1.6,0.8,2.7,2.1,2.7c0.5,0,1-0.2,1.3-0.6
	c0.5-0.5,0.7-1.3,0.7-2.2C63.9,35.9,63.6,35.2,63.2,34.7z M61.8,39c-0.9,0-1.5-0.9-1.5-2.2c0-1.3,0.6-2.2,1.5-2.2
	c0.9,0,1.5,0.9,1.5,2.2C63.4,38.1,62.8,39,61.8,39z"/>
<path class="st1" d="M67.8,34.2l-1.2,4.5h0l-1.2-4.5h-0.8v5.2h0.5V35h0l1.2,4.4h0.6L68,35h0v4.4h0.5v-5.2L67.8,34.2L67.8,34.2z"/>
<path class="st1" d="M71.3,34.2h-1.8v5.2h0.6v-2.2h1.3c0.3,0,0.6-0.1,0.8-0.4c0.3-0.3,0.4-0.6,0.4-1.1
	C72.6,34.7,72.2,34.2,71.3,34.2z M71.8,36.4c-0.1,0.2-0.3,0.3-0.6,0.3h-1.1v-1.8h1.1c0.5,0,0.8,0.3,0.8,0.9
	C72.1,36,72,36.2,71.8,36.4z"/>
<path class="st1" d="M75.2,34.2h-0.7L73,39.4h0.6l0.5-1.6h1.7l0.4,1.6h0.6L75.2,34.2z M74.2,37.3l0.7-2.4h0l0.6,2.4H74.2z"/>
<path class="st1" d="M80.1,34.2v4.3h0l-2.2-4.3h-0.6v5.2h0.5v-4.2h0l2.2,4.2h0.6v-5.2H80.1L80.1,34.2z"/>
<path class="st1" d="M84.3,34.2l-1.2,2.5l-1.2-2.5h-0.7l1.6,3.2v2h0.6v-2l1.6-3.2H84.3L84.3,34.2z"/>
<path class="st1" d="M158.6,28.2c0,3.3-1.3,6.2-3.4,8.4c-2.1,2.1-5.1,3.4-8.3,3.4H90.4c-0.3,0-0.5-0.1-0.7-0.2
	c-0.1-0.1-0.2-0.2-0.4-0.3c-0.3-0.3-0.4-0.7-0.4-1.1V23.5h0c0-1.9,0.8-3.7,2-4.9c0,0,0.1-0.1,0.1-0.1c0.1-0.1,0.1-0.1,0.2-0.2
	c0.1-0.1,0.2-0.2,0.3-0.2c0.1,0,0.1-0.1,0.2-0.2c0.1-0.1,0.2-0.1,0.3-0.2c0.1-0.1,0.2-0.1,0.3-0.2c0.2-0.1,0.4-0.2,0.6-0.3
	c0.1,0,0.1-0.1,0.2-0.1c0.1,0,0.2-0.1,0.3-0.1c0.1,0,0.1,0,0.2-0.1c0.1,0,0.1,0,0.2-0.1c0.6-0.2,1.3-0.3,2-0.3h17.3
	c1.3,0,2.4-0.5,3.3-1.3c0.8-0.8,1.3-2,1.3-3.2c0-2.5-2.1-4.6-4.6-4.6H89.6c-0.4,0-0.7-0.3-0.7-0.7V0.8c0-0.4,0.3-0.7,0.7-0.7h23.3
	c6.5,0,11.8,5.2,11.8,11.7c0,1.7-0.4,3.3-1,4.8c-0.6,1.3-1.4,2.5-2.4,3.5c-1.8,1.8-4.3,3.1-7,3.4H97.8c-0.3,0-0.5,0.1-0.8,0.2
	c0,0-0.1,0-0.1,0.1c0,0-0.1,0.1-0.2,0.1c-0.1,0.1-0.2,0.1-0.3,0.2c-0.3,0.3-0.5,0.8-0.5,1.3V28c0,0.2,0,0.4,0,0.6V32
	c0,0.1,0,0.2,0.1,0.3c0,0.1,0.1,0.2,0.1,0.2c0,0,0,0,0.1,0.1c0,0,0.1,0.1,0.1,0.1c0,0,0.1,0,0.2,0c0,0,0,0,0,0c0,0,0.1,0,0.1,0h50.1
	c1.3,0,2.4-0.5,3.3-1.4c0.8-0.8,1.3-2,1.4-3.2c0-2.6-2.1-4.7-4.7-4.7h-18c-2.2,0-4-1.1-5.1-2.8c2-2.4,3.2-5.5,3.2-8.9
	c0-3.4-1.2-6.5-3.2-8.9c1.1-1.7,3-2.8,5.1-2.8h25.8c0.4,0,0.7,0.3,0.7,0.7v5.7c0,0.4-0.3,0.7-0.7,0.7h-23.8c-0.5,0-0.9,0.4-0.9,0.9
	v7.4c0,0.5,0.4,0.9,0.9,0.9h16C153.2,16.5,158.5,21.7,158.6,28.2z"/>
<path class="st1" d="M166.4,5.4l-2.9-5.7l-2.9,5.7L160,6.6h1.4l0.5-0.9h3.4l0.5,0.9h1.4L166.4,5.4z M162.5,4.5l1-2l1,2H162.5z"/>
<path class="st1" d="M165.7,10.7v4.4l-4.4-3.4l-1.2-0.9v6.9h1.2v-4.4l4.4,3.4l1.2,1v-6.9L165.7,10.7z"/>
<path class="st1" d="M163.5,21.7c-1.9,0-3.5,1.6-3.5,3.5c0,1.9,1.6,3.5,3.5,3.5c1.9,0,3.5-1.6,3.5-3.5
	C167,23.2,165.4,21.7,163.5,21.7z M163.5,27.4c-1.2,0-2.2-1-2.2-2.2c0-1.2,1-2.2,2.2-2.2c1.2,0,2.2,1,2.2,2.2
	C165.7,26.4,164.7,27.4,163.5,27.4z"/>
<path class="st1" d="M166.8,34.6L166.8,34.6c0-1.1-0.8-1.9-1.9-1.9h-2.8c-1,0-1.9,0.8-1.9,1.9v0c0,0.4,0.1,0.8,0.3,1.1
	c0.1,0.1,0.1,0.2,0.2,0.3c0.3,0.3,0.8,0.5,1.3,0.5h2.5c0.5,0,1,0.4,1,0.9c0,0.5-0.4,1-1,1h-2.2c-0.5,0-1-0.4-1-1h-1.2
	c0,1.2,1,2.2,2.2,2.2h2.2c1.2,0,2.2-1,2.2-2.2c0-0.5-0.2-1-0.5-1.4c0,0,0-0.1-0.1-0.1c-0.4-0.4-1-0.7-1.6-0.7h-2.5
	c-0.3,0-0.6-0.3-0.6-0.6v0c0-0.3,0.3-0.6,0.6-0.6h2.8c0.3,0,0.6,0.3,0.6,0.6v0H166.8z"/>
</svg>
