<svg xmlns="http://www.w3.org/2000/svg" viewBox="0 0 512 512">
<path fill="#0081ff" d="M456,16H168a40.045,40.045,0,0,0-40,40V224a8,8,0,0,0-8,8v20.754a111.132,111.132,0,0,0-21.2,8.795L84.118,246.863a8,8,0,0,0-11.314,0L38.863,280.8a8,8,0,0,0,0,11.314L53.549,306.8a111.132,111.132,0,0,0-8.8,21.2H24a8,8,0,0,0-8,8v48a8,8,0,0,0,8,8H44.754a111.132,111.132,0,0,0,8.8,21.2L38.863,427.882c-4.113,4.118-2.738,8.493,0,11.314L72.8,473.137a8,8,0,0,0,11.314,0L98.8,458.451a111.132,111.132,0,0,0,21.2,8.795V488a8,8,0,0,0,8,8h48a8,8,0,0,0,8-8V467.246a111.132,111.132,0,0,0,21.2-8.795l14.686,14.686a8,8,0,0,0,11.314,0L265.137,439.2c2.946-2.613,3.7-7.613.78-10.529L250.451,413.2a111.132,111.132,0,0,0,8.795-21.2H280a8,8,0,0,0,8-8V368h48.782V352H320V315.552A19.574,19.574,0,0,0,300.448,296a18.886,18.886,0,0,0-12.62,4.657A11.728,11.728,0,0,1,280,304c-5.74,0-11.263-5.021-14.089-12.8,3.256-7.372-1.905-11.532-1.905-11.532C264.128,266.807,271.4,256,280,256a11.727,11.727,0,0,1,7.826,3.341A18.886,18.886,0,0,0,300.448,264,19.574,19.574,0,0,0,320,244.448V200h44.448A3.557,3.557,0,0,1,368,203.552a3.063,3.063,0,0,1-.6,1.975A27.584,27.584,0,0,0,360,224c0,17.645,17.944,32,40,32s40-14.355,40-32a27.589,27.589,0,0,0-7.4-18.472,3.064,3.064,0,0,1-.6-1.976A3.556,3.556,0,0,1,435.552,200H480V328a24.027,24.027,0,0,1-24,24H413.915v16H456a40.045,40.045,0,0,0,40-40V56A40.045,40.045,0,0,0,456,16ZM168,32H304V68.448A19.574,19.574,0,0,0,323.552,88a18.882,18.882,0,0,0,12.62-4.658A11.73,11.73,0,0,1,344,80c8.673,0,16,10.991,16,24s-7.327,24-16,24a11.73,11.73,0,0,1-7.827-3.342A18.882,18.882,0,0,0,323.552,120,19.574,19.574,0,0,0,304,139.552V184H259.552c-1.958,0-3.018-.847-3.49-2a3.137,3.137,0,0,1,.54-3.527A25.513,25.513,0,0,0,264,160c0-17.645-17.944-32-40-32s-40,14.355-40,32c0,6.654,2.71,12.911,7.4,18.473a3.584,3.584,0,0,1,.79,3.277c-.563,1.688-1.782,2.25-3.74,2.25H144V56A24.028,24.028,0,0,1,168,32ZM272,376h-18.9a8,8,0,0,0-7.785,6.158A95.175,95.175,0,0,1,233.643,410.3a8,8,0,0,0,1.149,9.861l13.375,13.374-22.628,22.628-13.374-13.375a8,8,0,0,0-9.861-1.149,95.16,95.16,0,0,1-28.146,11.677A8,8,0,0,0,168,461.105V480H136V461.105a8,8,0,0,0-6.158-7.785A95.16,95.16,0,0,1,101.7,441.643a8,8,0,0,0-9.861,1.149L78.461,456.167,55.833,433.539l13.375-13.374a8,8,0,0,0,1.149-9.861A95.175,95.175,0,0,1,58.68,382.158,8,8,0,0,0,50.9,376H32V344H50.9a8,8,0,0,0,7.785-6.158A95.175,95.175,0,0,1,70.357,309.7a8,8,0,0,0-1.149-9.861L55.833,286.461l22.628-22.628,13.374,13.375a8,8,0,0,0,9.861,1.149,95.175,95.175,0,0,1,28.146-11.677A8,8,0,0,0,136,258.9V240h32V258.9a8,8,0,0,0,6.158,7.785A95.175,95.175,0,0,1,202.3,278.357a8,8,0,0,0,9.861-1.149l13.374-13.375,22.628,22.628-13.375,13.374a8,8,0,0,0-1.149,9.861,95.175,95.175,0,0,1,11.677,28.146A8,8,0,0,0,253.105,344H272Zm8-56c6.654,0,12.856-2.775,18.473-7.4a3.38,3.38,0,0,1,5.527,2.95V352H288V336a8,8,0,0,0-8-8H259.246a111.132,111.132,0,0,0-8.795-21.2l3.5-3.5C259.872,313.626,269.536,320,280,320Zm24-75.552c0,3.385-3.083,5.052-5.528,2.949-5.514-4.744-11.818-7.4-18.472-7.4-13.635,0-25.3,10.72-29.9,25.768l-18.9-18.9a8,8,0,0,0-11.314,0L205.2,261.549a111.132,111.132,0,0,0-21.2-8.795V232a8,8,0,0,0-8-8H144V200h44.448A19.574,19.574,0,0,0,208,180.448a18.886,18.886,0,0,0-4.657-12.62A11.728,11.728,0,0,1,200,160c0-8.673,10.991-16,24-16s24,7.327,24,16a11.728,11.728,0,0,1-3.342,7.827A18.882,18.882,0,0,0,240,180.448,19.574,19.574,0,0,0,259.552,200H304Zm112-40.9a18.888,18.888,0,0,0,4.657,12.62A11.728,11.728,0,0,1,424,224c0,8.673-10.991,16-24,16s-24-7.327-24-16a11.727,11.727,0,0,1,3.343-7.828A18.886,18.886,0,0,0,384,203.552,19.574,19.574,0,0,0,364.448,184H320V139.552a3.517,3.517,0,0,1,1.569-2.945c3.252-2.14,7.454,2.9,10.168,4.325A26.514,26.514,0,0,0,344,144c17.645,0,32-17.944,32-40s-14.355-40-32-40a27.586,27.586,0,0,0-18.473,7.4,3.837,3.837,0,0,1-2.839.664c-1.907-.448-2.688-1.656-2.688-3.614V32H456a24.028,24.028,0,0,1,24,24V184H435.552A19.574,19.574,0,0,0,416,203.552Z"/>
<path fill="#0081ff" d="M475.972,384.323a24.078,24.078,0,0,0-19.515,5.389c-.157.134-.312.269-.465.407a23.957,23.957,0,0,0-31.992.007,23.979,23.979,0,0,0-24-4.755V344.546c0-13.427-10.987-24.769-24.411-24.543A24.029,24.029,0,0,0,352,344v89.871L329.43,420.9a21.957,21.957,0,0,0-28.943,6.462h0a21.958,21.958,0,0,0,4.942,30.226L355.35,494.51A8,8,0,0,0,360,496H488a8,8,0,0,0,8-8V408.856C496,396.728,487.39,386.181,475.972,384.323ZM480,480H362.563L313.9,445.623a6.964,6.964,0,0,1-1.6-9.806h0a6.963,6.963,0,0,1,9.233-1.833l34.344,20.876a8,8,0,0,0,9.562-1A8.286,8.286,0,0,0,368,447.751V344.283a8.19,8.19,0,0,1,7.452-8.265A8.009,8.009,0,0,1,384,344v63.713a8.191,8.191,0,0,0,7.588,8.277A8,8,0,0,0,400,408.284c.145-4.146,3.035-7.816,7.162-8.241a8.011,8.011,0,0,1,8.84,7.725,8.262,8.262,0,0,0,7.153,8.188A8,8,0,0,0,432,408.212a8.25,8.25,0,0,1,7.16-8.169A8.01,8.01,0,0,1,448,407.719c.149,4.289,3.277,8.038,7.562,8.269A7.989,7.989,0,0,0,464,408.035a7.785,7.785,0,0,1,7.75-7.785c5.75,0,8.25,4.307,8.25,8.606Z"/>
<path fill="#0081ff" d="M152,288a72,72,0,1,0,72,72A72.081,72.081,0,0,0,152,288Zm0,128a56,56,0,1,1,56-56A56.064,56.064,0,0,1,152,416Z"/>
<path fill="#0081ff" d="M152,328a32,32,0,1,0,32,32A32.036,32.036,0,0,0,152,328Zm0,48a16,16,0,1,1,16-16A16.019,16.019,0,0,1,152,376Z"/>
</svg>
